{
	"workout_name":"ololo",
	"workout_id":"8",
	"workout_trainings":
	[
		{
			"Training Name":"Ololo",
			"Excersizes":[
				{
					"Name":"ololo",
					"Sets": "5",
					"Repeats":"10",
					"Set Type": "Default"
				},
				{
					"Name":"ololo",
					"Sets": "5",
					"Repeats":"10",
					"Set Type": "Default"
				},
				{
					"Name":"ololo",
					"Sets": "5",
					"Repeats":"10",
					"Set Type": "Default",
				}
			]		
		}
	]
}
